h2 fecundity analysis
…
Check high and low predicted eggs

M %>% 
  select(camera_id, predicted_count_linear) %>% 
  arrange(desc(predicted_count_linear))

## # A tibble: 3,437 x 2
##    camera_id    predicted_count_linear
##    <chr>                         <dbl>
##  1 IMG_3756.JPG                   3265
##  2 IMG_2841.JPG                   3013
##  3 IMG_2198.JPG                   2933
##  4 IMG_2807.JPG                   2915
##  5 IMG_2811.JPG                   2756
##  6 IMG_2791.JPG                   2755
##  7 IMG_2813.JPG                   2748
##  8 IMG_2781.JPG                   2723
##  9 IMG_1880.JPG                   2714
## 10 IMG_2810.JPG                   2671
## # ... with 3,427 more rows

M %>% 
  select(camera_id, predicted_count_linear) %>% 
  arrange(predicted_count_linear)

## # A tibble: 3,437 x 2
##    camera_id    predicted_count_linear
##    <chr>                         <dbl>
##  1 IMG_2898.JPG                  0.129
##  2 IMG_4209.JPG                  0.198
##  3 IMG_5615.JPG                  0.555
##  4 IMG_5379.JPG                  0.631
##  5 IMG_4198.JPG                  0.761
##  6 IMG_5610.JPG                  0.806
##  7 IMG_5388.JPG                  1.10 
##  8 IMG_5397.JPG                  1.10 
##  9 IMG_5362.JPG                  1.21 
## 10 IMG_5519.JPG                  1.41 
## # ... with 3,427 more rows
…
